M48
; DRILL file {KiCad 5.99.0+really5.1.10+dfsg1-1} date Sat Aug 28 20:41:19 2021
; FORMAT={-:-/ absolute / metric / decimal}
; #@! TF.CreationDate,2021-08-28T20:41:19+02:00
; #@! TF.GenerationSoftware,Kicad,Pcbnew,5.99.0+really5.1.10+dfsg1-1
; #@! TF.FileFunction,Plated,1,2,PTH
FMAT,2
METRIC
T1C0.400
T2C0.700
T3C0.750
T4C1.000
%
G90
G05
T1
X133.35Y-118.11
X135.89Y-106.68
X135.89Y-109.22
X138.43Y-118.11
X142.24Y-123.19
X143.51Y-101.6
T2
X138.176Y-121.158
X138.176Y-123.634
X138.176Y-126.111
X145.796Y-121.158
X145.796Y-123.634
X145.796Y-126.111
T3
X138.43Y-105.41
X138.43Y-110.49
X138.43Y-115.57
X139.7Y-105.41
X139.7Y-110.49
X139.7Y-115.57
X140.97Y-105.41
X140.97Y-110.49
X140.97Y-115.57
T4
X133.35Y-105.41
X133.35Y-107.95
X133.35Y-110.49
X133.35Y-113.03
X133.35Y-115.57
X133.35Y-119.38
X133.35Y-121.92
X133.35Y-124.46
X133.35Y-127.0
X146.035Y-111.793
X146.035Y-115.57
X146.05Y-104.14
X146.05Y-107.967
X148.575Y-111.793
X148.575Y-115.57
X148.59Y-104.14
X148.59Y-107.967
T0
M30
