(export (version D)
  (design
    (source /home/francois/GITLAB/diy/diy_remotemailbox_notif/loadcellsensor/Arduino/kicad/RX/RX.sch)
    (date "sam. 28 août 2021 20:02:35")
    (tool "Eeschema 5.99.0+really5.1.10+dfsg1-1")
    (sheet (number 1) (name /) (tstamps /)
      (title_block
        (title "mailbox notification RX side")
        (company)
        (rev 0.1.0)
        (date 2021-08-28)
        (source RX.sch)
        (comment (number 1) (value "Free to reuse "))
        (comment (number 2) (value ""))
        (comment (number 3) (value ""))
        (comment (number 4) (value "")))))
  (components
    (comp (ref BZ1)
      (value Buzzer)
      (footprint Connector_PinHeader_2.54mm:PinHeader_1x02_P2.54mm_Vertical)
      (datasheet ~)
      (libsource (lib Device) (part Buzzer) (description "Buzzer, polarized"))
      (sheetpath (names /) (tstamps /))
      (tstamp 612A7059))
    (comp (ref D1)
      (value LED_red)
      (footprint Connector_PinSocket_2.54mm:PinSocket_1x02_P2.54mm_Vertical)
      (datasheet ~)
      (libsource (lib Device) (part LED) (description "Light emitting diode"))
      (sheetpath (names /) (tstamps /))
      (tstamp 612A81A4))
    (comp (ref Q1)
      (value 2N3904)
      (footprint Package_TO_SOT_THT:TO-92_Inline)
      (datasheet https://www.onsemi.com/pub/Collateral/2N3903-D.PDF)
      (libsource (lib Transistor_BJT) (part 2N3904) (description "0.2A Ic, 40V Vce, Small Signal NPN Transistor, TO-92"))
      (sheetpath (names /) (tstamps /))
      (tstamp 612A9F98))
    (comp (ref R1)
      (value 220)
      (footprint Resistor_THT:R_Axial_DIN0204_L3.6mm_D1.6mm_P7.62mm_Horizontal)
      (datasheet ~)
      (libsource (lib Device) (part R_US) (description "Resistor, US symbol"))
      (sheetpath (names /) (tstamps /))
      (tstamp 612B09AC))
    (comp (ref D2)
      (value LED_blue)
      (footprint Connector_PinSocket_2.54mm:PinSocket_1x02_P2.54mm_Vertical)
      (datasheet ~)
      (libsource (lib Device) (part LED) (description "Light emitting diode"))
      (sheetpath (names /) (tstamps /))
      (tstamp 612C458D))
    (comp (ref Q3)
      (value 2N3904)
      (footprint Package_TO_SOT_THT:TO-92_Inline)
      (datasheet https://www.onsemi.com/pub/Collateral/2N3903-D.PDF)
      (libsource (lib Transistor_BJT) (part 2N3904) (description "0.2A Ic, 40V Vce, Small Signal NPN Transistor, TO-92"))
      (sheetpath (names /) (tstamps /))
      (tstamp 612C4593))
    (comp (ref R2)
      (value 220)
      (footprint Resistor_THT:R_Axial_DIN0204_L3.6mm_D1.6mm_P7.62mm_Horizontal)
      (datasheet ~)
      (libsource (lib Device) (part R_US) (description "Resistor, US symbol"))
      (sheetpath (names /) (tstamps /))
      (tstamp 612C45A3))
    (comp (ref Q2)
      (value 2N3904)
      (footprint Package_TO_SOT_THT:TO-92_Inline)
      (datasheet https://www.onsemi.com/pub/Collateral/2N3903-D.PDF)
      (libsource (lib Transistor_BJT) (part 2N3904) (description "0.2A Ic, 40V Vce, Small Signal NPN Transistor, TO-92"))
      (sheetpath (names /) (tstamps /))
      (tstamp 612AE8DC))
    (comp (ref SW1)
      (value SW_DPST_x2)
      (footprint Connector_PinHeader_2.54mm:PinHeader_1x02_P2.54mm_Vertical)
      (libsource (lib Switch) (part SW_DPST_x2) (description "Single Pole Single Throw (SPST) switch, separate symbol"))
      (sheetpath (names /) (tstamps /))
      (tstamp 612C8300))
    (comp (ref R3)
      (value 100)
      (footprint Resistor_THT:R_Axial_DIN0204_L3.6mm_D1.6mm_P7.62mm_Horizontal)
      (datasheet ~)
      (libsource (lib Device) (part R_US) (description "Resistor, US symbol"))
      (sheetpath (names /) (tstamps /))
      (tstamp 612C92E4))
    (comp (ref J1)
      (value RX433MHz)
      (footprint Connector_PinSocket_2.54mm:PinSocket_1x04_P2.54mm_Vertical)
      (datasheet ~)
      (libsource (lib Connector) (part Conn_01x04_Female) (description "Generic connector, single row, 01x04, script generated (kicad-library-utils/schlib/autogen/connector/)"))
      (sheetpath (names /) (tstamps /))
      (tstamp 612D414E))
    (comp (ref J2)
      (value to_µC)
      (footprint Connector_PinSocket_2.54mm:PinSocket_1x05_P2.54mm_Vertical)
      (datasheet ~)
      (libsource (lib Connector) (part Conn_01x05_Female) (description "Generic connector, single row, 01x05, script generated (kicad-library-utils/schlib/autogen/connector/)"))
      (sheetpath (names /) (tstamps /))
      (tstamp 612E74DD)))
  (libparts
    (libpart (lib Connector) (part Conn_01x04_Female)
      (description "Generic connector, single row, 01x04, script generated (kicad-library-utils/schlib/autogen/connector/)")
      (docs ~)
      (footprints
        (fp Connector*:*_1x??_*))
      (fields
        (field (name Reference) J)
        (field (name Value) Conn_01x04_Female))
      (pins
        (pin (num 1) (name Pin_1) (type passive))
        (pin (num 2) (name Pin_2) (type passive))
        (pin (num 3) (name Pin_3) (type passive))
        (pin (num 4) (name Pin_4) (type passive))))
    (libpart (lib Connector) (part Conn_01x05_Female)
      (description "Generic connector, single row, 01x05, script generated (kicad-library-utils/schlib/autogen/connector/)")
      (docs ~)
      (footprints
        (fp Connector*:*_1x??_*))
      (fields
        (field (name Reference) J)
        (field (name Value) Conn_01x05_Female))
      (pins
        (pin (num 1) (name Pin_1) (type passive))
        (pin (num 2) (name Pin_2) (type passive))
        (pin (num 3) (name Pin_3) (type passive))
        (pin (num 4) (name Pin_4) (type passive))
        (pin (num 5) (name Pin_5) (type passive))))
    (libpart (lib Device) (part Buzzer)
      (description "Buzzer, polarized")
      (docs ~)
      (footprints
        (fp *Buzzer*))
      (fields
        (field (name Reference) BZ)
        (field (name Value) Buzzer))
      (pins
        (pin (num 1) (name -) (type passive))
        (pin (num 2) (name +) (type passive))))
    (libpart (lib Device) (part LED)
      (description "Light emitting diode")
      (docs ~)
      (footprints
        (fp LED*)
        (fp LED_SMD:*)
        (fp LED_THT:*))
      (fields
        (field (name Reference) D)
        (field (name Value) LED))
      (pins
        (pin (num 1) (name K) (type passive))
        (pin (num 2) (name A) (type passive))))
    (libpart (lib Device) (part R_US)
      (description "Resistor, US symbol")
      (docs ~)
      (footprints
        (fp R_*))
      (fields
        (field (name Reference) R)
        (field (name Value) R_US))
      (pins
        (pin (num 1) (name ~) (type passive))
        (pin (num 2) (name ~) (type passive))))
    (libpart (lib Switch) (part SW_DPST_x2)
      (description "Single Pole Single Throw (SPST) switch, separate symbol")
      (docs ~)
      (fields
        (field (name Reference) SW)
        (field (name Value) SW_DPST_x2))
      (pins
        (pin (num 1) (name A) (type passive))
        (pin (num 2) (name B) (type passive))
        (pin (num 3) (name A) (type passive))
        (pin (num 4) (name B) (type passive))))
    (libpart (lib Transistor_BJT) (part 2N3904)
      (description "0.2A Ic, 40V Vce, Small Signal NPN Transistor, TO-92")
      (docs https://www.onsemi.com/pub/Collateral/2N3903-D.PDF)
      (footprints
        (fp TO?92*))
      (fields
        (field (name Reference) Q)
        (field (name Value) 2N3904)
        (field (name Footprint) Package_TO_SOT_THT:TO-92_Inline))
      (pins
        (pin (num 1) (name E) (type passive))
        (pin (num 2) (name B) (type passive))
        (pin (num 3) (name C) (type passive)))))
  (libraries
    (library (logical Connector)
      (uri /home/francois/GITLAB/update-libs-kicad/kicad-symbols/Connector.lib))
    (library (logical Device)
      (uri /home/francois/GITLAB/update-libs-kicad/kicad-symbols/Device.lib))
    (library (logical Switch)
      (uri /home/francois/GITLAB/update-libs-kicad/kicad-symbols/Switch.lib))
    (library (logical Transistor_BJT)
      (uri /home/francois/GITLAB/update-libs-kicad/kicad-symbols/Transistor_BJT.lib)))
  (nets
    (net (code 1) (name RX_DATA)
      (node (ref J2) (pin 4))
      (node (ref J1) (pin 2))
      (node (ref J1) (pin 3)))
    (net (code 2) (name GND)
      (node (ref J2) (pin 5))
      (node (ref R1) (pin 2))
      (node (ref R2) (pin 2))
      (node (ref J1) (pin 4))
      (node (ref R3) (pin 2)))
    (net (code 3) (name "Net-(BZ1-Pad2)")
      (node (ref BZ1) (pin 2))
      (node (ref R3) (pin 1)))
    (net (code 4) (name "Net-(BZ1-Pad1)")
      (node (ref Q2) (pin 1))
      (node (ref BZ1) (pin 1)))
    (net (code 5) (name "Net-(Q2-Pad2)")
      (node (ref SW1) (pin 1))
      (node (ref Q2) (pin 2)))
    (net (code 6) (name sound)
      (node (ref D1) (pin 1))
      (node (ref R2) (pin 1))
      (node (ref R1) (pin 1))
      (node (ref SW1) (pin 2))
      (node (ref D2) (pin 1)))
    (net (code 7) (name alarm_packages)
      (node (ref Q3) (pin 2))
      (node (ref J2) (pin 3)))
    (net (code 8) (name alarm_letters)
      (node (ref J2) (pin 2))
      (node (ref Q1) (pin 2)))
    (net (code 9) (name +5V)
      (node (ref J1) (pin 1))
      (node (ref Q2) (pin 3))
      (node (ref Q3) (pin 3))
      (node (ref Q1) (pin 3))
      (node (ref J2) (pin 1)))
    (net (code 10) (name "Net-(D2-Pad2)")
      (node (ref Q3) (pin 1))
      (node (ref D2) (pin 2)))
    (net (code 11) (name "Net-(D1-Pad2)")
      (node (ref Q1) (pin 1))
      (node (ref D1) (pin 2)))))